Cubic Zirconia Price Analysis
…
Standardized Residuals

# Standardized residuals
model <- lm(price ~ carat + cut + clarity + depth + table, data = data)
data$residuals <- rstandard(model)

# Identify outliers
outliers <- data %>% filter(abs(residuals) > 3)  # Residuals > 3 standard deviations
print(nrow(outliers))

[1] 586

print(outliers)

# A tibble: 586 × 12
   carat cut       color clarity depth table     x     y     z price volume
   <dbl> <fct>     <fct> <fct>   <dbl> <dbl> <dbl> <dbl> <dbl> <dbl>  <dbl>
 1  1.04 Premium   D     VVS2     61.1    60  6.54  6.51  3.99 10984   170.
 2  1.8  Very Good E     SI1      62.2    57  7.81  7.89  4.88 17273   301.
 3  1.69 Ideal     F     VS2      62.2    57  7.59  7.66  4.74 16789   276.
 4  2.8  Premium   I     SI2      61.1    59  9.03  8.98  5.5  15030   446.
 5  1.71 Ideal     G     VS1      63      56  7.65  7.58  4.8  17009   278.
 6  1.5  Very Good F     VS1      60.5    55  7.39  7.48  4.5  15585   249.
 7  2.11 Premium   E     SI2      62.4    61  8.19  8.1   5.08 18034   337.
 8  1.04 Ideal     D     IF       61.8    57  6.49  6.52  4.02 14494   170.
 9  1.22 Ideal     F     VVS1     61.2    57  6.88  6.92  4.22 13029   201.
10  1.2  Ideal     F     VVS1     61.1    55  6.86  6.89  4.2  13088   199.
# ℹ 576 more rows
# ℹ 1 more variable: residuals <dbl>
…
